{
	"name": "Logistics",
	"icons": [
		{
			"src": "/assets/favicon/android-chrome-36x36-6598bf9eb7733f8e86475671150ad131f1ba2f0e9ffd06f06109e2d3da24ca27.png",
			"sizes": "36x36",
			"type": "image\/png",
			"density": 0.75
		},
		{
			"src": "/assets/favicon/android-chrome-48x48-3b63327aab3dc88e5bde1e02dbf03aa6720887f15e8b25075768e37fc64703f6.png",
			"sizes": "48x48",
			"type": "image\/png",
			"density": 1
		},
		{
			"src": "/assets/favicon/android-chrome-72x72-6f3b2b3038da0fdd012d73edfef03acada66d76ec9e16c665b847b2092d5cf87.png",
			"sizes": "72x72",
			"type": "image\/png",
			"density": 1.5
		},
		{
			"src": "/assets/favicon/android-chrome-96x96-324bab48f5e420c8361a57f3eed8f7465b7c20fed314c5c4011b1c272a3563a0.png",
			"sizes": "96x96",
			"type": "image\/png",
			"density": 2
		},
		{
			"src": "/assets/favicon/android-chrome-144x144-5a9d4038fb86f4d11cd2073d497a296be2dddf6499b3852d28f64c44a8228e7c.png",
			"sizes": "144x144",
			"type": "image\/png",
			"density": 3
		},
		{
			"src": "/assets/favicon/android-chrome-192x192-6999613ca7ebbe3ca30d6e792d8802ddcf0993dc226616aa289503902bc52bb2.png",
			"sizes": "192x192",
			"type": "image\/png",
			"density": 4
		}
	]
}
